test_run_dir/ALUTest/ALU.vcd
$date
2021-10-27T06:34+0000
$end
$version
0.2
$end
$comment

$end
$timescale 1ns  $end
$scope module ALU $end
 $var wire 32 ! io_out $end
 $var wire 32 " io_in_A $end
 $var wire 32 # _GEN_2 $end
 $var wire 3 $ _T $end
 $var wire 63 % _GEN_5 $end
 $var wire 32 & _sum_T_2 $end
 $var wire 63 ' slll $end
 $var wire 32 ( andd $end
 $var wire 32 ) orr $end
 $var wire 1 * _sum_T $end
 $var wire 32 + _GEN_1 $end
 $var wire 32 , xorr $end
 $var wire 32 - _GEN_4 $end
 $var wire 33 . _sum_T_1 $end
 $var wire 1 / clock $end
 $var wire 33 0 _sum_T_4 $end
 $var wire 32 1 io_in_B $end
 $var wire 32 2 sum $end
 $var wire 1 3 sltt $end
 $var wire 32 4 sr $end
 $var wire 63 5 _GEN_6 $end
 $var wire 32 6 _sum_T_3 $end
 $var wire 32 7 _GEN_0 $end
 $var wire 4 8 io_alu_Op $end
 $var wire 1 9 reset $end
 $var wire 32 : _GEN_3 $end
 $var wire 5 ; _slll_T $end
$upscope $end
$enddefinitions $end
$dumpvars
b00000000000000000000000000000000 &
b000000000000000000000000000000000000000000000000000000000000000 %
b00000000000000000000000000000000 6
b000000000000000000000000000000000000000000000000000000000000000 5
b00000000000000000000000000000000 (
b000000000000000000000000000000000000000000000000000000000000000 '
b000 $
b00000 ;
b00000000000000000000000000000000 !
0/
b00000000000000000000000000000000 7
b00000000000000000000000000000000 "
b00000000000000000000000000000000 1
b0000 8
b00000000000000000000000000000000 )
b00000000000000000000000000000000 #
b000000000000000000000000000000000 .
0*
09
b00000000000000000000000000000000 +
b00000000000000000000000000000000 :
b00000000000000000000000000000000 2
b00000000000000000000000000000000 ,
b00000000000000000000000000000000 -
03
b00000000000000000000000000000000 4
b000000000000000000000000000000000 0
$end
#0
19
#1
1/
#6
13
b00101101111011000110101011111101 -
b000000000000000000000000000000000101101111011000110101011111101 %
b00000000110011011001001000110100 4
b100011111100000011010000110111000 .
b00011111100000011010000110111000 &
b000000000000000000000000000000000101101111011000110101011111101 5
b000000000000000000000001100110110010010001101001011010100000000 '
b11100000011111100101111001001000 6
b11000000000100100001010000000000 (
b11000000000100100001010000000000 7
0/
b11101101111111100111111011111101 )
b00101101111011000110101011111101 !
b110101110000100001001001011111101 0
b11001101100100100011010010110101 "
b11100000011111100101111001001000 1
b0100 8
b00101101111011000110101011111101 #
b10101110000100001001001011111101 2
09
b100 $
b11000000000100100001010000000000 +
b00101101111011000110101011111101 :
b00101101111011000110101011111101 ,
b01000 ;
#11
1/
#16
03
b00010000100101000010011000101101 -
b000000000000000000000000000000000010000100101000010011000101101 %
b00000000000000000000000000000001 4
b111100000011010001101100101000001 .
b11100000011010001101100101000001 &
b000000000000000000000000000000010010001010001011001011110101110 5
b101100001101110010111110011011010000000000000000000000000000000 '
b11100000011010001101100101000001 6
b00010000100101000010011000101101 (
b00010000100101000010011000101101 7
0/
b10111111110111111011111011111111 )
b10010001010001011001011110101110 !
b110010001010001011001011110101110 0
b10110000110111001011111001101101 "
b00011111100101110010011010111111 1
b1000 8
b00010000100101000010011000101101 #
b10010001010001011001011110101110 2
1*
b000 $
b00010000100101000010011000101101 +
b00010000100101000010011000101101 :
b10101111010010111001100011010010 ,
b11111 ;
#21
1/
#26
13
b00000100001010100110100001010010 -
b000000000000000000000000000000000000100001010100110100001010010 %
b00000000000000000000000010010010 4
b110110001100101001000010010101010 .
b10110001100101001000010010101010 &
b000000000000000000000000000000011010110010000110111000110000101 5
b000000000001001001010111011101100110110110000000000000000000000 '
b10110001100101001000010010101010 6
b00000100001010100110100001010010 (
b00000100001010100110100001010010 7
0/
b01101110111011111111111111011111 )
b11010110010000110111000110000101 !
b011010110010000110111000110000101 0
b00100100101011101110110011011011 "
b01001110011010110111101101010110 1
b00000100001010100110100001010010 #
b11010110010000110111000110000101 2
b00000100001010100110100001010010 +
b00000100001010100110100001010010 :
b01101010110001011001011110001101 ,
b10110 ;
#31
1/
#36
b11001101101011001111110111111110 -
b000000000000000000000000000000011001101101011001111110111111110 %
b00000000010010000010110001110101 4
b100111010010100110101001101011000 .
b00111010010100110101001101011000 &
b000000000000000000000000000000011001101101011001111110111111110 5
b000000000000000000000000100100000101100011101011101011000000000 '
b11000101101011001010110010101000 6
b01000000001011000010010010000000 (
b11001101101011001111110111111110 7
0/
b11001101101011001111110111111110 )
b11001101101011001111110111111110 !
b100001101110110010010001001111110 0
b01001000001011000111010111010110 "
b11000101101011001010110010101000 1
b0110 8
b11001101101011001111110111111110 #
b00001101110110010010001001111110 2
0*
b110 $
b11001101101011001111110111111110 +
b11001101101011001111110111111110 :
b10001101100000001101100101111110 ,
b01000 ;
#41
1/
#46
03
b10000100000010000000011110000000 -
b000000000000000000000000000000010000100000010000000011110000000 %
b00000000000000001100010010001001 4
b101011010101101110110100001010000 .
b01011010101101110110100001010000 &
b000000000000000000000000000000000011111010000001011011111010010 5
b000000000000000110001001000100101001111100000100000000000000000 '
b01011010101101110110100001010000 6
b10000100000010000000011110000000 (
b10000100000010000000011110000000 7
0/
b11100101110010011101111110110010 )
b00011111010000001011011111010010 !
b100011111010000001011011111010010 0
b11000100100010010100111110000010 "
b10100101010010001001011110110000 1
b1000 8
b10000100000010000000011110000000 #
b00011111010000001011011111010010 2
1*
b000 $
b10000100000010000000011110000000 +
b10000100000010000000011110000000 :
b01100001110000011101100000110010 ,
b10000 ;
#51
1/
#56
b11000101000010001010100110001100 -
b000000000000000000000000000000011000101000010001010100110001100 %
b00000000000000111011110000110110 4
b100111010011001110001011001110010 .
b00111010011001110001011001110010 &
b000000000000000000000000000000011000101000010001010100110001100 5
b000000000000000001110111100001101101011111011110000000000000000 '
b11000101100110001110100110001110 6
b11000101000010001010100110001100 (
b11000101000010001010100110001100 7
0/
b11101111100111011110111110111110 )
b11000101000010001010100110001100 !
b110110100101001101001100101001010 0
b11101111000011011010111110111100 "
b11000101100110001110100110001110 1
b0111 8
b11000101000010001010100110001100 #
b10110100101001101001100101001010 2
0*
b111 $
b11000101000010001010100110001100 +
b11000101000010001010100110001100 :
b00101010100101010100011000110010 ,
b01110 ;
#61
1/
#66
13
b00011000110000000001110000000000 -
b000000000000000000000000000000011110101110010110011111000010000 %
b00111101011100101100111110000100 4
b101100011001001111110001111111111 .
b01100011001001111110001111111111 &
b000000000000000000000000000000011110101110010110011111000010000 5
b000000000000000000000000000000011110101110010110011111000010000 '
b10011100110110000001110000000001 6
b00011000110000000001110000000000 (
b00011000110000000001110000000000 7
0/
b11111110111111011001111100001001 )
b11110101110010110011111000010000 !
b100010111101111011011101100001001 0
b01111010111001011001111100001000 "
b10011100110110000001110000000001 1
b0001 8
b00011000110000000001110000000000 #
b00010111101111011011101100001001 2
b001 $
b00011000110000000001110000000000 +
b00011000110000000001110000000000 :
b11100110001111011000001100001001 ,
b00001 ;
#71
1/
#76
03
b10001101000000010010101001001000 -
b000000000000000000000011011101001000010010101001011010000000000 %
b00000000011011101001000010010101 4
b101010000011011100001010110110111 .
b01010000011011100001010110110111 &
b000000000000000000000011011101001000010010101001011010000000000 5
b000000000000000000000011011101001000010010101001011010000000000 '
b10101111100100011110101001001001 6
b10001101000000010010101001001000 (
b10001101000000010010101001001000 7
0/
b11111111101100011110101001011011 )
b01000010010101001011010000000000 !
b110001100101100110001010010100011 0
b11011101001000010010101001011010 "
b10101111100100011110101001001001 1
b10001101000000010010101001001000 #
b10001100101100110001010010100011 2
b10001101000000010010101001001000 +
b10001101000000010010101001001000 :
b01110010101100001100000000010011 ,
b01001 ;
#81
1/
#86
13
b01100101110111011111111111111101 -
b000000000000000000000000000000001100101110111011111111111111101 %
b00000000000000000010100011101101 4
b110011011001111110010010110010011 .
b10011011001111110010010110010011 &
b000000000000000000000000000000001100101110111011111111111111101 5
b000000000000000000000001010001110110111111100100010000000000000 '
b01100100110000001101101001101101 6
b00000100000000001001101000000001 (
b01100101110111011111111111111101 7
0/
b01100101110111011111111111111101 )
b01100101110111011111111111111101 !
b001101001110111101001100111111110 0
b00000101000111011011111110010001 "
b01100100110000001101101001101101 1
b0110 8
b01100101110111011111111111111101 #
b01101001110111101001100111111110 2
b110 $
b01100101110111011111111111111101 +
b01100101110111011111111111111101 :
b01100001110111010110010111111100 ,
b01101 ;
#91
1/
#96
03
b00000000000000000000000000000000 -
b000000000000000000000000000000000000000000000000000000000000000 %
b00000000000000000001001110010011 4
b110001010100000001100111100001101 .
b10001010100000001100111100001101 &
b000000000000000000000000000000000000000000000000000000000000000 5
b000000000000100111001001100010001010000101000000000000000000000 '
b01110101011111110011000011110011 6
b00010100000110000000000000010000 (
b00010100000110000000000000010000 7
0/
b11111101111111111011101011110111 )
b00000000000000000000000000000000 !
b100010010000101111011101100000111 0
b10011100100110001000101000010100 "
b01110101011111110011000011110011 1
b0011 8
b00010100000110000000000000010000 #
b00010010000101111011101100000111 2
b011 $
b00010100000110000000000000010000 +
b00000000000000000000000000000000 :
b11101001111001111011101011100111 ,
b10011 ;
#101
1/
#106
b00000000000100110101110110100011 -
b000000000000000000000000000000000000000000100110101110110100011 %
b00000000000100110101110110100011 4
b111110010100001011010001010010101 .
b11110010100001011010001010010101 &
b000000000000000000000000000000000000000000100110101110110100011 5
b000000000000000000001001101011101101000110111011111100000000000 '
b00001101011110100101110101101011 6
b00001000011010000001100100101011 (
b00001000011010000001100100101011 7
0/
b10011111111111110101111111111111 )
b00000000000100110101110110100011 !
b010101000011001110111100100101010 0
b10011010111011010001101110111111 "
b00001101011110100101110101101011 1
b0101 8
b00000000000100110101110110100011 #
b10101000011001110111100100101010 2
b101 $
b00000000000100110101110110100011 +
b00000000000100110101110110100011 :
b10010111100101110100011011010100 ,
b01011 ;
#111
1/
#116
13
b00000000000111100001001000001100 -
b000000000000000000000000000000000000000000111100001001000001100 %
b00000000000000010100000111110001 4
b101101011011000010110100101110011 .
b01101011011000010110100101110011 &
b000000000000000000000000000000000000000000111100001001000001100 5
b000000000000000000001010000011111000110011000111100000000000000 '
b10010100100111101001011010001101 6
b00000000000111100001001000001100 (
b00000000000111100001001000001100 7
0/
b10111100101111101011011110011111 )
b00000000000111100001001000001100 !
b010111100110111001100100110101011 0
b00101000001111100011001100011110 "
b10010100100111101001011010001101 1
b0111 8
b00000000000111100001001000001100 #
b10111100110111001100100110101011 2
b111 $
b00000000000111100001001000001100 +
b00000000000111100001001000001100 :
b10111100101000001010010110010011 ,
b01101 ;
#121
1/
#126
b00111010100111100111101001110110 -
b000000000000000000000000000000000111010100111100111101001110110 %
b00000000000000000000000010101010 4
b111000111111001011001110110001010 .
b11000111111001011001110110001010 &
b000000000000000000000000000000000111010100111100111101001110110 5
b000000000001010101000111001111010000000100000000000000000000000 '
b00111000000110100110001001110110 6
b00101000000010100110001000000010 (
b00111010100111100111101001110110 7
0/
b00111010100111100111101001110110 )
b00111010100111100111101001110110 !
b001100010101010001101110001111000 0
b00101010100011100111101000000010 "
b00111000000110100110001001110110 1
b0110 8
b00111010100111100111101001110110 #
b01100010101010001101110001111000 2
b110 $
b00111010100111100111101001110110 +
b00111010100111100111101001110110 :
b00010010100101000001100001110100 ,
b10110 ;
#131
1/
#136
03
b11010010010011110110101010010101 -
b000000000000000000000000000000011010010010011110110101010010101 %
b00000000000000000000100000111001 4
b110101110001000101010000110101100 .
b10101110001000101010000110101100 &
b000000000000000000000000000000011010010010011110110101010010101 5
b000000000001000001110010010001101001100000100000000000000000000 '
b01010001110111010101111001010100 6
b00000001100100000001010001000000 (
b00000001100100000001010001000000 7
0/
b11010011110111110111111011010101 )
b11010010010011110110101010010101 !
b011010101011011111001001100010101 0
b10000011100100100011010011000001 "
b01010001110111010101111001010100 1
b0100 8
b11010010010011110110101010010101 #
b11010101011011111001001100010101 2
b100 $
b00000001100100000001010001000000 +
b11010010010011110110101010010101 :
b11010010010011110110101010010101 ,
b10100 ;
#141
1/
#146
13
b00000000000000000000000000000001 -
b000000000000000000000000000000000000000000000000000000000000001 %
b00000000000000000000110010111000 4
b100111110111001000001000001001110 .
b00111110111001000001000001001110 &
b000000000000000000000000000000000000000000000000000000000000001 5
b000000000000000110010111000101100001101011011000000000000000000 '
b11000001000110111110111110110010 6
b00000000000000101100001100010010 (
b00000000000000101100001100010010 7
0/
b11110011111110111110111111111011 )
b00000000000000000000000000000001 !
b011110011111111101011001100001101 0
b00110010111000101100001101011011 "
b11000001000110111110111110110010 1
b0010 8
b00000000000000101100001100010010 #
b11110011111111101011001100001101 2
b010 $
b00000000000000101100001100010010 +
b00000000000000101100001100010010 :
b11110011111110010010110011101001 ,
b10010 ;
#151
1/
#156
b00000000000000000000101101101110 4
b100111100000000100000100010001100 .
b00111100000000100000100010001100 &
b000000000001011011011101101011111010111101100000000000000000000 '
b11000011111111011111011101110100 6
b10000010111011010111010101110000 (
b10000010111011010111010101110000 7
0/
b11110111111111011111111101111111 )
b101111010111010110111010011101111 0
b10110110111011010111110101111011 "
b11000011111111011111011101110100 1
b0011 8
b10000010111011010111010101110000 #
b01111010111010110111010011101111 2
b011 $
b10000010111011010111010101110000 +
b00000000000000000000000000000001 :
b01110101000100001000101000001111 ,
b10100 ;
#161
1/
#166
03
b11010000001110110101011101000110 -
b000000000000000000000000000000011010000001110110101011101000110 %
b00000000000000000000000000000001 4
b110100111010111000100111100000001 .
b10100111010111000100111100000001 &
b000000000000000000000000000000011010000001110110101011101000110 5
b100010001001100011100111101110010000000000000000000000000000000 '
b01011000101000111011000011111111 6
b00001000100000001010000010111001 (
b00001000100000001010000010111001 7
0/
b11011000101110111111011111111111 )
b11010000001110110101011101000110 !
b011100001001111001001100010111000 0
b10001000100110001110011110111001 "
b01011000101000111011000011111111 1
b0100 8
b11010000001110110101011101000110 #
b11100001001111001001100010111000 2
b100 $
b00001000100000001010000010111001 +
b11010000001110110101011101000110 :
b11010000001110110101011101000110 ,
b11111 ;
#171
1/
#176
b11111111111100111101110110111110 -
b000000000000000000000000000000011111111111100111101110110111110 %
b00000000000000000000000000111110 4
b110111000100111110111111001000110 .
b10111000100111110111111001000110 &
b000000000000000000000000000000011111111111100111101110110111110 5
b000001111101011010011110111011000110000000000000000000000000000 '
b01000111011000001000000110111010 6
b01000010010000001000000110001000 (
b11111111111100111101110110111110 7
0/
b11111111111100111101110110111110 )
b11111111111100111101110110111110 !
b101000010001101000101111101000110 0
b11111010110100111101110110001100 "
b01000111011000001000000110111010 1
b0110 8
b11111111111100111101110110111110 #
b01000010001101000101111101000110 2
b110 $
b11111111111100111101110110111110 +
b11111111111100111101110110111110 :
b10111101101100110101110000110110 ,
b11010 ;
#181
1/
#186
13
b00000000000000000000010010100011 -
b000000000000000000000000000000000000000000000000000010010100011 %
b00000000000000000000010010100011 4
b100101111100111010110111111101011 .
b00101111100111010110111111101011 &
b000000000000000000000000000000000000000000000000000010010100011 5
b000000000010010100011011001011000101011101000000000000000000000 '
b11010000011000101001000000010101 6
b10010000011000001001000000010101 (
b10010000011000001001000000010101 7
0/
b11010100011011101011000101011101 )
b00000000000000000000010010100011 !
b101100100110011110100000101110010 0
b10010100011011001011000101011101 "
b11010000011000101001000000010101 1
b0101 8
b00000000000000000000010010100011 #
b01100100110011110100000101110010 2
b101 $
b00000000000000000000010010100011 +
b00000000000000000000010010100011 :
b01000100000011100010000101001000 ,
b10101 ;
#191
1/
#196
03
b00000000000000000000000000000000 -
b000000000000000000000000000000000000000000000000000000000000000 %
b00000000101100011011101101111011 4
b111011111100100011101101110011001 .
b11011111100100011101101110011001 &
b000000000000000000000000000000000000000000000000000000000000000 5
b000000000000000000000000010110001101110110111101101101010000000 '
b00100000011011100010010001100111 6
b00000000010011000010010000100101 (
b00000000010011000010010000100101 7
0/
b01111000111111111011110111110111 )
b00000000000000000000000000000000 !
b001111001010010111110001000011100 0
b01011000110111011011110110110101 "
b00100000011011100010010001100111 1
b0010 8
b00000000010011000010010000100101 #
b01111001010010111110001000011100 2
b010 $
b00000000010011000010010000100101 +
b00000000010011000010010000100101 :
b01111000101100111001100111010010 ,
b00111 ;
#201
1/
#206
b11011111011110010101111111111111 -
b000000000000000000000000000000011011111011110010101111111111111 %
b00000000000000000000001101110101 4
b101100101110101111110001101101010 .
b01100101110101111110001101101010 &
b000000000000000000000000000000011011111011110010101111111111111 5
b000000000110111010101100101000111111010010000000000000000000000 '
b10011010001010000001110010010110 6
b10011000000010000000010010000000 (
b11011111011110010101111111111111 7
0/
b11011111011110010101111111111111 )
b11011111011110010101111111111111 !
b101110111100000010110010001111111 0
b11011101010110010100011111101001 "
b10011010001010000001110010010110 1
b0110 8
b11011111011110010101111111111111 #
b01110111100000010110010001111111 2
b110 $
b11011111011110010101111111111111 +
b11011111011110010101111111111111 :
b01000111011100010101101101111111 ,
b10110 ;
#211
1/
#216
03
b01010101101111011111001001101110 -
b000000000000000000000000000000001010101101111011111001001101110 %
b00000001010100101110010111001000 4
b111111010110100100100110110011010 .
b11111010110100100100110110011010 &
b000000000000000000000000000000001010101101111011111001001101110 5
b000000000000000000000000001010100101110010111001000101010000000 '
b00000101001011011011001001100110 6
b00000100001010010011001000100010 (
b01010101101111011111001001101110 7
0/
b01010101101111011111001001101110 )
b01010101101111011111001001101110 !
b001011001111001110010010010010000 0
b01010100101110010111001000101010 "
b00000101001011011011001001100110 1
b01010101101111011111001001101110 #
b01011001111001110010010010010000 2
b01010101101111011111001001101110 +
b01010101101111011111001001101110 :
b01010001100101001100000001001100 ,
b00110 ;
#221
1/
#226
b00000000000000000000000000000000 -
b000000000000000000000000000000000000000000000000000000000000000 %
b00000000000000000000000000000010 4
b111101011010100011101101111000011 .
b11101011010100011101101111000011 &
b000000000000000000000000000000000000000000000000000000000000000 5
b000100010100000111101011010000100100000000000000000000000000000 '
b00010100101011100010010000111101 6
b00000100000001100010010000001001 (
b00000100000001100010010000001001 7
0/
b01010101101011111010110100111101 )
b00000000000000000000000000000000 !
b001011001101101011101000101000110 0
b01000101000001111010110100001001 "
b00010100101011100010010000111101 1
b0010 8
b00000100000001100010010000001001 #
b01011001101101011101000101000110 2
b010 $
b00000100000001100010010000001001 +
b00000100000001100010010000001001 :
b01010001101010011000100100110100 ,
b11101 ;
#231
1/
#236
b00000110100000111000010000000110 -
b000000000000000000000000001110110100100111100011000001111000000 %
b00000001110110100100111100011000 4
b111111001001111000111101010011010 .
b11111001001111000111101010011010 &
b000000000000000000000000001110110100100111100011000001111000000 5
b000000000000000000000000001110110100100111100011000001111000000 '
b00000110110000111000010101100110 6
b00000110100000111000010000000110 (
b00000110100000111000010000000110 7
0/
b01110110110100111100011101101111 )
b10100100111100011000001111000000 !
b001111101010101110100101101110101 0
b01110110100100111100011000001111 "
b00000110110000111000010101100110 1
b0001 8
b00000110100000111000010000000110 #
b01111101010101110100101101110101 2
b001 $
b00000110100000111000010000000110 +
b00000110100000111000010000000110 :
b01110000010100000100001101101001 ,
b00110 ;
#241
1/
#246
13
b01000001000000000010000010000010 -
b000000000000000000000000000000001000001000000000010000010000010 %
b00000000000000010101011010111101 4
b100011110101111111101111101110010 .
b00011110101111111101111101110010 &
b000000000000000000000000000000001000001000000000010000010000010 5
b000000000000000000101010110101111011011111101001000000000000000 '
b11100001010000000010000010001110 6
b01000001000000000010000010000010 (
b01000001000000000010000010000010 7
0/
b11110101111011110110111111011110 )
b01000001000000000010000010000010 !
b100110110111011111001000001100000 0
b01010101101011110110111111010010 "
b11100001010000000010000010001110 1
b0111 8
b01000001000000000010000010000010 #
b00110110111011111001000001100000 2
b111 $
b01000001000000000010000010000010 +
b01000001000000000010000010000010 :
b10110100111011110100111101011100 ,
b01110 ;
#251
1/
#256
03
b00010000100100100101000110100010 -
b000000000000000000000000111100001001101001010001111100100000000 %
b00000001111000010011010010100011 4
b111101110001011000000011001011001 .
b11101110001011000000011001011001 &
b000000000000000000000000111100001001101001010001111100100000000 5
b000000000000000000000000111100001001101001010001111100100000000 '
b00010001110100111111100110100111 6
b00010000100100100101000110100010 (
b00010000100100100101000110100010 7
0/
b11110001110110111111100111110111 )
b01001101001010001111100100000000 !
b100000010011011100100101110011001 0
b11110000100110100101000111110010 "
b00010001110100111111100110100111 1
b0001 8
b00010000100100100101000110100010 #
b00000010011011100100101110011001 2
b001 $
b00010000100100100101000110100010 +
b00010000100100100101000110100010 :
b11100001010010011010100001010101 ,
b00111 ;
#261
1/
#266
b10100100000000001000000000001100 -
b000000000000000000000000000000010100100000000001000000000001100 %
b00000000000000000000000000001011 4
b101010001111011110101000101000100 .
b01010001111011110101000101000100 &
b000000000000000000000000000000010100100000000001000000000001100 5
b000101101010010010010000001010011000000000000000000000000000000 '
b10101110000100001010111010111100 6
b10100100000000001000000000001100 (
b10100100000000001000000000001100 7
0/
b10111111001101001010111111111100 )
b10100100000000001000000000001100 !
b101100011001101010011000000001000 0
b10110101001001001000000101001100 "
b10101110000100001010111010111100 1
b0111 8
b10100100000000001000000000001100 #
b01100011001101010011000000001000 2
b111 $
b10100100000000001000000000001100 +
b10100100000000001000000000001100 :
b00011011001101000010111111110000 ,
b11100 ;
#271
1/
#276
13
b10100000000001010001000000000000 -
b000000000000000000000000000000010100000000001010001000000000000 %
b01010001000010111011110000010001 4
b100001010001110101110100101111111 .
b00001010001110101110100101111111 &
b000000000000000000000000000000010101100010100100110000110100001 5
b000000000000000000000000000000101000100001011101111000001000100 '
b00001010001110101110100101111111 6
b10100000000001010001000000000000 (
b10100000000001010001000000000000 7
0/
b11110111110101110111111010100011 )
b10101100010100100110000110100001 !
b010101100010100100110000110100001 0
b10100010000101110111100000100010 "
b11110101110001010001011010000001 1
b1000 8
b10100000000001010001000000000000 #
b10101100010100100110000110100001 2
1*
b000 $
b10100000000001010001000000000000 +
b10100000000001010001000000000000 :
b01010111110100100110111010100011 ,
b00001 ;
#281
1/
#286
03
b00100111001111110110111111011110 -
b000000000000000000000000000000000100111001111110110111111011110 %
b00000000000000000000000000000010 4
b111011110110001111001000001100100 .
b11011110110001111001000001100100 &
b000000000000000000000000000000000100111001111110110111111011110 5
b000001001100010011101001011110001100000000000000000000000000000 '
b00100001001110000110111110011100 6
b00100000001000000100101110000100 (
b00100111001111110110111111011110 7
0/
b00100111001111110110111111011110 )
b00100111001111110110111111011110 !
b001000111010111111011101101100010 0
b00100110001001110100101111000110 "
b00100001001110000110111110011100 1
b0110 8
b00100111001111110110111111011110 #
b01000111010111111011101101100010 2
0*
b110 $
b00100111001111110110111111011110 +
b00100111001111110110111111011110 :
b00000111000111110010010001011010 ,
b11100 ;
#291
1/
#296
b01011101000011011100100000111000 -
b000000000000000000000000000000001011101000011011100100000111000 %
b00000000000011101111101011100001 4
b111010101001001010011110000010101 .
b11010101001001010011110000010101 &
b000000000000000000000000000000001011101000011011100100000111000 5
b000000000000000000000111011111010111000010111101001100000000000 '
b00101010110110101100001111101011 6
b00100010110100100000001111000011 (
b00100010110100100000001111000011 7
0/
b01111111110111111100101111111011 )
b01011101000011011100100000111000 !
b010100010101100011100111110111110 0
b01110111110101110000101111010011 "
b00101010110110101100001111101011 1
b0100 8
b01011101000011011100100000111000 #
b10100010101100011100111110111110 2
b100 $
b00100010110100100000001111000011 +
b01011101000011011100100000111000 :
b01011101000011011100100000111000 ,
b01011 ;
#301
1/
#306
13
b00001001000000000000000011000000 -
b000000000000000000000000000000000001001000000000000000011000000 %
b00000000000000000000000000110100 4
b110110110011111011011111100101010 .
b10110110011111011011111100101010 &
b000000000000000000000000000000001010110101110111000000010110111 5
b000000000000011010011100100111111111000010000000000000000000000 '
b01001001100000100100000011010110 6
b00001001000000000000000011000000 (
b00001001000000000000000011000000 7
0/
b01001101101110110111111111110111 )
b01010110101110111000000010110111 !
b001010110101110111000000010110111 0
b00001101001110010011111111100001 "
b01001001100000100100000011010110 1
b0000 8
b00001001000000000000000011000000 #
b01010110101110111000000010110111 2
b000 $
b00001001000000000000000011000000 +
b00001001000000000000000011000000 :
b01000100101110110111111100110111 ,
b10110 ;
#311
1/
#316
b00000000000000000000000000000001 -
b000000000000000000000000000000000000000000000000000000000000001 %
b00000000000010010001101111110001 4
b110101010011110111111110001110110 .
b10101010011110111111110001110110 &
b000000000000000000000000000000000000000000000000000000000000001 5
b000000000000000000000001001000110111111000100011011110000000000 '
b01010101100001000000001110001010 6
b00000100000001000000000000001010 (
b00000100000001000000000000001010 7
0/
b01110101111011111100011111101111 )
b00000000000000000000000000000001 !
b001111001111100111100011111111001 0
b00100100011011111100010001101111 "
b01010101100001000000001110001010 1
b0011 8
b00000100000001000000000000001010 #
b01111001111100111100011111111001 2
b011 $
b00000100000001000000000000001010 +
b00000000000000000000000000000001 :
b01110001111010111100011111100101 ,
b01010 ;
#321
1/
#326
03
b00000000000000000000000000000000 -
b000000000000000000000000000000000000000000000000000000000000000 %
b10001000001001111100010101110010 4
b111001101001100101111001001000000 .
b11001101001100101111001001000000 &
b000000000000000000000000000000000000000000000000000000000000000 5
b000000000000000000000000000000010001000001001111100010101110010 '
b00110010110011010000110111000000 6
b00000000000001010000010101000000 (
b00000000000001010000010101000000 7
0/
b10111010111011111100110111110010 )
b00000000000000000000000000000000 !
b010111010111101001101001100110010 0
b10001000001001111100010101110010 "
b00110010110011010000110111000000 1
b00000000000001010000010101000000 #
b10111010111101001101001100110010 2
b00000000000001010000010101000000 +
b00000000000000000000000000000000 :
b10111010111010101100100010110010 ,
b00000 ;
#331
1/
#336
13
b01000000100001000000110000000100 -
b000000000000100011011011101001111001000010100000000000000000000 %
b00000000000000000000010001101101 4
b110011110011110011111001111101100 .
b10011110011110011111001111101100 &
b000000000000100011011011101001111001000010100000000000000000000 5
b000000000000100011011011101001111001000010100000000000000000000 '
b01100001100001100000110000010100 6
b01000000100001000000110000000100 (
b01000000100001000000110000000100 7
0/
b01100111110111110011110010010101 )
b11001000010100000000000000000000 !
b010101000011000110100100010011001 0
b01000110110111010011110010000101 "
b01100001100001100000110000010100 1
b0001 8
b01000000100001000000110000000100 #
b10101000011000110100100010011001 2
b001 $
b01000000100001000000110000000100 +
b01000000100001000000110000000100 :
b00100111010110110011000010010001 ,
b10100 ;
#341
1/
#346
13
b01100000110000000000000100110100 -
b000000000000000000000000000000001100000110000000000000100110100 %
b00000000000000000000000000000000 4
b100001111001011011011001010000001 .
b00001111001011011011001010000001 &
b000000000000000000000000000000001100000110000000000000100110100 5
b011010101110100000110011101101000000000000000000000000000000000 '
b11110000110100100100110101111111 6
b01100000110000000000000100110100 (
b01100000110000000000000100110100 7
0/
b11111010111110100111111111111111 )
b01100000110000000000000100110100 !
b101011011101110101000000100110011 0
b01101010111010000011001110110100 "
b11110000110100100100110101111111 1
b0111 8
b01100000110000000000000100110100 #
b01011011101110101000000100110011 2
b111 $
b01100000110000000000000100110100 +
b01100000110000000000000100110100 :
b10011010001110100111111011001011 ,
b11111 ;
#351
1/
#356
03
b11111001111110110111110000111011 -
b000000000000000000000000000000011111001111110110111110000111011 %
b00000000011111000111110010110110 4
b101001110111111001000111111110111 .
b01001110111111001000111111110111 &
b000000000000000000000000000000011111001111110110111110000111011 5
b000000000000000000000011111000111110010110110000110011000000000 '
b10110001000000110111000000001001 6
b10110000000000010110000000000001 (
b11111001111110110111110000111011 7
0/
b11111001111110110111110000111011 )
b11111001111110110111110000111011 !
b110101001111111001101110000111100 0
b11111000111110010110110000110011 "
b10110001000000110111000000001001 1
b0110 8
b11111001111110110111110000111011 #
b10101001111111001101110000111100 2
b110 $
b11111001111110110111110000111011 +
b11111001111110110111110000111011 :
b01001001111110100001110000111010 ,
b01001 ;
#361
1/
#366
b00000010001000001111000101000010 -
b000000000000000000000000000000000000010001000001111000101000010 %
b00000011100110001100011111001101 4
b111101100100100010000101010011010 .
b11101100100100010000101010011010 &
b000000000000000000000000000000011010010110000101111110111110101 5
b000000000000000000000000011100110001100011111001101011011000000 '
b11101100100100010000101010011010 6
b00000010001000001111000101000010 (
b00000010001000001111000101000010 7
0/
b11110111011111111111011101111111 )
b11010010110000101111110111110101 !
b111010010110000101111110111110101 0
b11100110001100011111001101011011 "
b00010011011011101111010101100110 1
b1000 8
b00000010001000001111000101000010 #
b11010010110000101111110111110101 2
1*
b000 $
b00000010001000001111000101000010 +
b00000010001000001111000101000010 :
b11110101010111110000011000111101 ,
b00110 ;
#371
1/
#376
b00000010000011001010000000001101 -
b000000000000000000000000000000000000010000011001010000000001101 %
b00000000000001000001100111100111 4
b110000101101100100100101011110011 .
b10000101101100100100101011110011 &
b000000000000000000000000000000011111101100010101001011000001100 5
b000000000000000000100000110011110011100000111111110000000000000 '
b01111010010011011011010100001101 6
b00000010000011001010000000001101 (
b00000010000011001010000000001101 7
0/
b11111011011111011111010111111111 )
b11111101100010101001011000001100 !
b011111101100010101001011000001100 0
b10000011001111001110000011111111 "
b01111010010011011011010100001101 1
b0000 8
b00000010000011001010000000001101 #
b11111101100010101001011000001100 2
0*
b00000010000011001010000000001101 +
b00000010000011001010000000001101 :
b11111001011100010101010111110010 ,
b01101 ;
#381
1/
#386
b00000100001110110000000010000110 -
b000000000000000000000000010000100101111111000011010000110000000 %
b00000010000100101111111000011010 4
b111100001110001001111111001011010 .
b11100001110001001111111001011010 &
b000000000000000000000000010000100101111111000011010000110000000 5
b000000000000000000000000010000100101111111000011010000110000000 '
b00011110001110110000000110100110 6
b00000100001110110000000010000110 (
b00000100001110110000000010000110 7
0/
b10011110101111111000011110100110 )
b00101111111000011010000110000000 !
b010100010111110101000100000101100 0
b10000100101111111000011010000110 "
b00011110001110110000000110100110 1
b0001 8
b00000100001110110000000010000110 #
b10100010111110101000100000101100 2
b001 $
b00000100001110110000000010000110 +
b00000100001110110000000010000110 :
b10011010100001001000011100100000 ,
b00110 ;
#391
1/
