test_run_dir/lab66/counter_with_xor.vcd
$date
2021-10-28T09:29+0000
$end
$version
0.2
$end
$comment

$end
$timescale 1ns  $end
$scope module counter_with_xor $end
 $var wire 3 ! io_out $end
 $var wire 3 " count_buffer $end
 $var wire 1 # _news_T $end
 $var wire 3 $ counter $end
 $var wire 1 % clock $end
 $var wire 4 & _count_buffer_T $end
 $var wire 3 ' _count_buffer_T_1 $end
 $var wire 1 ( news $end
 $var wire 1 ) reset $end
$upscope $end
$enddefinitions $end
$dumpvars
0%
b000 "
0)
0#
b000 '
b000 $
b000 !
b0000 &
0(
$end
#0
b001 "
b0001 &
b001 '
1(
1)
#1
1%
#6
0%
0)
#11
b001 !
1%
b010 "
b0010 &
b010 '
b001 $
#16
0%
#21
b010 !
1%
b011 "
b0011 &
b011 '
b010 $
#26
0%
#31
b011 !
1%
b100 "
b0100 &
b100 '
b011 $
#36
0%
#41
b100 !
1%
b000 "
b0101 &
1#
b101 '
b100 $
0(
#46
0%
#51
b000 !
1%
b001 "
b0001 &
0#
b001 '
b000 $
1(
#56
0%
#61
b001 !
1%
b010 "
b0010 &
b010 '
b001 $
#66
0%
#71
b010 !
1%
b011 "
b0011 &
b011 '
b010 $
#76
0%
#81
b011 !
1%
b100 "
b0100 &
b100 '
b011 $
#86
0%
#91
b100 !
1%
b000 "
b0101 &
1#
b101 '
b100 $
0(
#96
0%
#101
b000 !
1%
b001 "
b0001 &
0#
b001 '
b000 $
1(
#106
0%
#111
b001 !
1%
b010 "
b0010 &
b010 '
b001 $
#116
0%
#121
b010 !
1%
b011 "
b0011 &
b011 '
b010 $
#126
0%
#131
b011 !
1%
b100 "
b0100 &
b100 '
b011 $
#136
0%
#141
b100 !
1%
b000 "
b0101 &
1#
b101 '
b100 $
0(
#146
0%
#151
b000 !
1%
b001 "
b0001 &
0#
b001 '
b000 $
1(
#156
0%
#161
b001 !
1%
b010 "
b0010 &
b010 '
b001 $
#166
0%
#171
b010 !
1%
b011 "
b0011 &
b011 '
b010 $
#176
0%
#181
b011 !
1%
b100 "
b0100 &
b100 '
b011 $
#186
0%
#191
b100 !
1%
b000 "
b0101 &
1#
b101 '
b100 $
0(
#196
0%
#201
b000 !
1%
b001 "
b0001 &
0#
b001 '
b000 $
1(
#206
0%
#211
b001 !
1%
b010 "
b0010 &
b010 '
b001 $
#216
0%
#221
b010 !
1%
b011 "
b0011 &
b011 '
b010 $
#226
0%
#231
b011 !
1%
b100 "
b0100 &
b100 '
b011 $
#236
0%
#241
b100 !
1%
b000 "
b0101 &
1#
b101 '
b100 $
0(
#246
0%
#251
b000 !
1%
b001 "
b0001 &
0#
b001 '
b000 $
1(
#256
0%
#261
b001 !
1%
b010 "
b0010 &
b010 '
b001 $
#266
0%
#271
b010 !
1%
b011 "
b0011 &
b011 '
b010 $
#276
0%
#281
b011 !
1%
b100 "
b0100 &
b100 '
b011 $
#286
0%
#291
b100 !
1%
b000 "
b0101 &
1#
b101 '
b100 $
0(
#296
0%
#301
b000 !
1%
b001 "
b0001 &
0#
b001 '
b000 $
1(
#306
0%
#311
b001 !
1%
b010 "
b0010 &
b010 '
b001 $
#316
0%
#321
b010 !
1%
b011 "
b0011 &
b011 '
b010 $
#326
0%
#331
b011 !
1%
b100 "
b0100 &
b100 '
b011 $
#336
0%
#341
b100 !
1%
b000 "
b0101 &
1#
b101 '
b100 $
0(
#346
0%
#351
b000 !
1%
b001 "
b0001 &
0#
b001 '
b000 $
1(
#356
0%
#361
b001 !
1%
b010 "
b0010 &
b010 '
b001 $
#366
0%
#371
b010 !
1%
b011 "
b0011 &
b011 '
b010 $
#376
0%
#381
b011 !
1%
b100 "
b0100 &
b100 '
b011 $
#386
0%
#391
b100 !
1%
b000 "
b0101 &
1#
b101 '
b100 $
0(
#396
0%
#401
b000 !
1%
b001 "
b0001 &
0#
b001 '
b000 $
1(
#406
0%
#411
b001 !
1%
b010 "
b0010 &
b010 '
b001 $
#416
0%
#421
b010 !
1%
b011 "
b0011 &
b011 '
b010 $
#426
0%
#431
b011 !
1%
b100 "
b0100 &
b100 '
b011 $
#436
0%
#441
b100 !
1%
b000 "
b0101 &
1#
b101 '
b100 $
0(
#446
0%
#451
b000 !
1%
b001 "
b0001 &
0#
b001 '
b000 $
1(
#456
0%
#461
b001 !
1%
b010 "
b0010 &
b010 '
b001 $
#466
0%
#471
b010 !
1%
b011 "
b0011 &
b011 '
b010 $
#476
0%
#481
b011 !
1%
b100 "
b0100 &
b100 '
b011 $
#486
0%
#491
b100 !
1%
b000 "
b0101 &
1#
b101 '
b100 $
0(
#496
0%
#501
b000 !
1%
b001 "
b0001 &
0#
b001 '
b000 $
1(
#506
0%
#511
b001 !
1%
b010 "
b0010 &
b010 '
b001 $
#516
0%
#521
b010 !
1%
b011 "
b0011 &
b011 '
b010 $
#526
0%
#531
b011 !
1%
b100 "
b0100 &
b100 '
b011 $
#536
0%
#541
b100 !
1%
b000 "
b0101 &
1#
b101 '
b100 $
0(
#546
0%
#551
b000 !
1%
b001 "
b0001 &
0#
b001 '
b000 $
1(
#556
0%
#561
b001 !
1%
b010 "
b0010 &
b010 '
b001 $
#566
0%
#571
b010 !
1%
b011 "
b0011 &
b011 '
b010 $
#576
0%
#581
b011 !
1%
b100 "
b0100 &
b100 '
b011 $
#586
0%
#591
b100 !
1%
b000 "
b0101 &
1#
b101 '
b100 $
0(
#596
0%
#601
b000 !
1%
b001 "
b0001 &
0#
b001 '
b000 $
1(
#606
0%
#611
b001 !
1%
b010 "
b0010 &
b010 '
b001 $
#616
0%
#621
b010 !
1%
b011 "
b0011 &
b011 '
b010 $
#626
0%
#631
b011 !
1%
b100 "
b0100 &
b100 '
b011 $
#636
0%
#641
b100 !
1%
b000 "
b0101 &
1#
b101 '
b100 $
0(
#646
0%
#651
b000 !
1%
b001 "
b0001 &
0#
b001 '
b000 $
1(
#656
0%
#661
b001 !
1%
b010 "
b0010 &
b010 '
b001 $
#666
0%
#671
b010 !
1%
b011 "
b0011 &
b011 '
b010 $
#676
0%
#681
b011 !
1%
b100 "
b0100 &
b100 '
b011 $
#686
0%
#691
b100 !
1%
b000 "
b0101 &
1#
b101 '
b100 $
0(
#696
0%
#701
b000 !
1%
b001 "
b0001 &
0#
b001 '
b000 $
1(
#706
0%
#711
b001 !
1%
b010 "
b0010 &
b010 '
b001 $
#716
0%
#721
b010 !
1%
b011 "
b0011 &
b011 '
b010 $
#726
0%
#731
b011 !
1%
b100 "
b0100 &
b100 '
b011 $
#736
0%
#741
b100 !
1%
b000 "
b0101 &
1#
b101 '
b100 $
0(
#746
0%
#751
b000 !
1%
b001 "
b0001 &
0#
b001 '
b000 $
1(
#756
0%
#761
b001 !
1%
b010 "
b0010 &
b010 '
b001 $
#766
0%
#771
b010 !
1%
b011 "
b0011 &
b011 '
b010 $
#776
0%
#781
b011 !
1%
b100 "
b0100 &
b100 '
b011 $
#786
0%
#791
b100 !
1%
b000 "
b0101 &
1#
b101 '
b100 $
0(
#796
0%
#801
b000 !
1%
b001 "
b0001 &
0#
b001 '
b000 $
1(
#806
0%
#811
b001 !
1%
b010 "
b0010 &
b010 '
b001 $
#816
0%
#821
b010 !
1%
b011 "
b0011 &
b011 '
b010 $
#826
0%
#831
b011 !
1%
b100 "
b0100 &
b100 '
b011 $
#836
0%
#841
b100 !
1%
b000 "
b0101 &
1#
b101 '
b100 $
0(
#846
0%
#851
b000 !
1%
b001 "
b0001 &
0#
b001 '
b000 $
1(
#856
0%
#861
b001 !
1%
b010 "
b0010 &
b010 '
b001 $
#866
0%
#871
b010 !
1%
b011 "
b0011 &
b011 '
b010 $
#876
0%
#881
b011 !
1%
b100 "
b0100 &
b100 '
b011 $
#886
0%
#891
b100 !
1%
b000 "
b0101 &
1#
b101 '
b100 $
0(
#896
0%
#901
b000 !
1%
b001 "
b0001 &
0#
b001 '
b000 $
1(
#906
0%
#911
b001 !
1%
b010 "
b0010 &
b010 '
b001 $
#916
0%
#921
b010 !
1%
b011 "
b0011 &
b011 '
b010 $
#926
0%
#931
b011 !
1%
b100 "
b0100 &
b100 '
b011 $
#936
0%
#941
b100 !
1%
b000 "
b0101 &
1#
b101 '
b100 $
0(
#946
0%
#951
b000 !
1%
b001 "
b0001 &
0#
b001 '
b000 $
1(
#956
0%
#961
b001 !
1%
b010 "
b0010 &
b010 '
b001 $
#966
0%
#971
b010 !
1%
b011 "
b0011 &
b011 '
b010 $
#976
0%
#981
b011 !
1%
b100 "
b0100 &
b100 '
b011 $
#986
0%
#991
b100 !
1%
b000 "
b0101 &
1#
b101 '
b100 $
0(
#996
0%
#1001
b000 !
1%
b001 "
b0001 &
0#
b001 '
b000 $
1(
#1006
0%
#1011
b001 !
1%
b010 "
b0010 &
b010 '
b001 $
#1016
0%
#1021
b010 !
1%
b011 "
b0011 &
b011 '
b010 $
#1026
0%
#1031
b011 !
1%
b100 "
b0100 &
b100 '
b011 $
#1036
0%
#1041
b100 !
1%
b000 "
b0101 &
1#
b101 '
b100 $
0(
#1046
0%
#1051
b000 !
1%
b001 "
b0001 &
0#
b001 '
b000 $
1(
#1056
0%
#1061
b001 !
1%
b010 "
b0010 &
b010 '
b001 $
#1066
0%
#1071
b010 !
1%
b011 "
b0011 &
b011 '
b010 $
#1076
0%
#1081
b011 !
1%
b100 "
b0100 &
b100 '
b011 $
#1086
0%
#1091
b100 !
1%
b000 "
b0101 &
1#
b101 '
b100 $
0(
#1096
0%
#1101
b000 !
1%
b001 "
b0001 &
0#
b001 '
b000 $
1(
#1106
0%
#1111
b001 !
1%
b010 "
b0010 &
b010 '
b001 $
#1116
0%
#1121
b010 !
1%
b011 "
b0011 &
b011 '
b010 $
#1126
0%
#1131
b011 !
1%
b100 "
b0100 &
b100 '
b011 $
#1136
0%
#1141
b100 !
1%
b000 "
b0101 &
1#
b101 '
b100 $
0(
#1146
0%
#1151
b000 !
1%
b001 "
b0001 &
0#
b001 '
b000 $
1(
#1156
0%
#1161
b001 !
1%
b010 "
b0010 &
b010 '
b001 $
#1166
0%
#1171
b010 !
1%
b011 "
b0011 &
b011 '
b010 $
#1176
0%
#1181
b011 !
1%
b100 "
b0100 &
b100 '
b011 $
#1186
0%
#1191
b100 !
1%
b000 "
b0101 &
1#
b101 '
b100 $
0(
#1196
0%
#1201
b000 !
1%
b001 "
b0001 &
0#
b001 '
b000 $
1(
#1206
0%
#1211
b001 !
1%
b010 "
b0010 &
b010 '
b001 $
#1216
0%
#1221
b010 !
1%
b011 "
b0011 &
b011 '
b010 $
#1226
0%
#1231
b011 !
1%
b100 "
b0100 &
b100 '
b011 $
#1236
0%
#1241
b100 !
1%
b000 "
b0101 &
1#
b101 '
b100 $
0(
#1246
0%
#1251
b000 !
1%
b001 "
b0001 &
0#
b001 '
b000 $
1(
#1256
0%
#1261
b001 !
1%
b010 "
b0010 &
b010 '
b001 $
#1266
0%
#1271
b010 !
1%
b011 "
b0011 &
b011 '
b010 $
#1276
0%
#1281
b011 !
1%
b100 "
b0100 &
b100 '
b011 $
#1286
0%
#1291
b100 !
1%
b000 "
b0101 &
1#
b101 '
b100 $
0(
#1296
0%
#1301
b000 !
1%
b001 "
b0001 &
0#
b001 '
b000 $
1(
#1306
0%
#1311
b001 !
1%
b010 "
b0010 &
b010 '
b001 $
#1316
0%
#1321
b010 !
1%
b011 "
b0011 &
b011 '
b010 $
#1326
0%
#1331
b011 !
1%
b100 "
b0100 &
b100 '
b011 $
#1336
0%
#1341
b100 !
1%
b000 "
b0101 &
1#
b101 '
b100 $
0(
#1346
0%
#1351
b000 !
1%
b001 "
b0001 &
0#
b001 '
b000 $
1(
#1356
0%
#1361
b001 !
1%
b010 "
b0010 &
b010 '
b001 $
#1366
0%
#1371
b010 !
1%
b011 "
b0011 &
b011 '
b010 $
#1376
0%
#1381
b011 !
1%
b100 "
b0100 &
b100 '
b011 $
#1386
0%
#1391
b100 !
1%
b000 "
b0101 &
1#
b101 '
b100 $
0(
#1396
0%
#1401
b000 !
1%
b001 "
b0001 &
0#
b001 '
b000 $
1(
#1406
0%
#1411
b001 !
1%
b010 "
b0010 &
b010 '
b001 $
#1416
0%
#1421
b010 !
1%
b011 "
b0011 &
b011 '
b010 $
#1426
0%
#1431
b011 !
1%
b100 "
b0100 &
b100 '
b011 $
#1436
0%
#1441
b100 !
1%
b000 "
b0101 &
1#
b101 '
b100 $
0(
#1446
0%
#1451
b000 !
1%
b001 "
b0001 &
0#
b001 '
b000 $
1(
#1456
0%
#1461
b001 !
1%
b010 "
b0010 &
b010 '
b001 $
#1466
0%
#1471
b010 !
1%
b011 "
b0011 &
b011 '
b010 $
#1476
0%
#1481
b011 !
1%
b100 "
b0100 &
b100 '
b011 $
#1486
0%
#1491
b100 !
1%
b000 "
b0101 &
1#
b101 '
b100 $
0(
#1496
0%
#1501
b000 !
1%
b001 "
b0001 &
0#
b001 '
b000 $
1(
#1506
0%
#1511
b001 !
1%
b010 "
b0010 &
b010 '
b001 $
#1516
0%
#1521
b010 !
1%
b011 "
b0011 &
b011 '
b010 $
#1526
0%
#1531
b011 !
1%
b100 "
b0100 &
b100 '
b011 $
#1536
0%
#1541
b100 !
1%
b000 "
b0101 &
1#
b101 '
b100 $
0(
#1546
0%
#1551
b000 !
1%
b001 "
b0001 &
0#
b001 '
b000 $
1(
#1556
0%
#1561
b001 !
1%
b010 "
b0010 &
b010 '
b001 $
#1566
0%
#1571
b010 !
1%
b011 "
b0011 &
b011 '
b010 $
#1576
0%
#1581
b011 !
1%
b100 "
b0100 &
b100 '
b011 $
#1586
0%
#1591
b100 !
1%
b000 "
b0101 &
1#
b101 '
b100 $
0(
#1596
0%
#1601
b000 !
1%
b001 "
b0001 &
0#
b001 '
b000 $
1(
#1606
0%
#1611
b001 !
1%
b010 "
b0010 &
b010 '
b001 $
#1616
0%
#1621
b010 !
1%
b011 "
b0011 &
b011 '
b010 $
#1626
0%
#1631
b011 !
1%
b100 "
b0100 &
b100 '
b011 $
#1636
0%
#1641
b100 !
1%
b000 "
b0101 &
1#
b101 '
b100 $
0(
#1646
0%
#1651
b000 !
1%
b001 "
b0001 &
0#
b001 '
b000 $
1(
#1656
0%
#1661
b001 !
1%
b010 "
b0010 &
b010 '
b001 $
#1666
0%
#1671
b010 !
1%
b011 "
b0011 &
b011 '
b010 $
#1676
0%
#1681
b011 !
1%
b100 "
b0100 &
b100 '
b011 $
#1686
0%
#1691
b100 !
1%
b000 "
b0101 &
1#
b101 '
b100 $
0(
#1696
0%
#1701
b000 !
1%
b001 "
b0001 &
0#
b001 '
b000 $
1(
#1706
0%
#1711
b001 !
1%
b010 "
b0010 &
b010 '
b001 $
#1716
0%
#1721
b010 !
1%
b011 "
b0011 &
b011 '
b010 $
#1726
0%
#1731
b011 !
1%
b100 "
b0100 &
b100 '
b011 $
#1736
0%
#1741
b100 !
1%
b000 "
b0101 &
1#
b101 '
b100 $
0(
#1746
0%
#1751
b000 !
1%
b001 "
b0001 &
0#
b001 '
b000 $
1(
#1756
0%
#1761
b001 !
1%
b010 "
b0010 &
b010 '
b001 $
#1766
0%
#1771
b010 !
1%
b011 "
b0011 &
b011 '
b010 $
#1776
0%
#1781
b011 !
1%
b100 "
b0100 &
b100 '
b011 $
#1786
0%
#1791
b100 !
1%
b000 "
b0101 &
1#
b101 '
b100 $
0(
#1796
0%
#1801
b000 !
1%
b001 "
b0001 &
0#
b001 '
b000 $
1(
#1806
0%
#1811
b001 !
1%
b010 "
b0010 &
b010 '
b001 $
#1816
0%
#1821
b010 !
1%
b011 "
b0011 &
b011 '
b010 $
#1826
0%
#1831
b011 !
1%
b100 "
b0100 &
b100 '
b011 $
#1836
0%
#1841
b100 !
1%
b000 "
b0101 &
1#
b101 '
b100 $
0(
#1846
0%
#1851
b000 !
1%
b001 "
b0001 &
0#
b001 '
b000 $
1(
#1856
0%
#1861
b001 !
1%
b010 "
b0010 &
b010 '
b001 $
#1866
0%
#1871
b010 !
1%
b011 "
b0011 &
b011 '
b010 $
#1876
0%
#1881
b011 !
1%
b100 "
b0100 &
b100 '
b011 $
#1886
0%
#1891
b100 !
1%
b000 "
b0101 &
1#
b101 '
b100 $
0(
#1896
0%
#1901
b000 !
1%
b001 "
b0001 &
0#
b001 '
b000 $
1(
#1906
0%
#1911
b001 !
1%
b010 "
b0010 &
b010 '
b001 $
#1916
0%
#1921
b010 !
1%
b011 "
b0011 &
b011 '
b010 $
#1926
0%
#1931
b011 !
1%
b100 "
b0100 &
b100 '
b011 $
#1936
0%
#1941
b100 !
1%
b000 "
b0101 &
1#
b101 '
b100 $
0(
#1946
0%
#1951
b000 !
1%
b001 "
b0001 &
0#
b001 '
b000 $
1(
#1956
0%
#1961
b001 !
1%
b010 "
b0010 &
b010 '
b001 $
#1966
0%
#1971
b010 !
1%
b011 "
b0011 &
b011 '
b010 $
#1976
0%
#1981
b011 !
1%
b100 "
b0100 &
b100 '
b011 $
#1986
0%
#1991
b100 !
1%
b000 "
b0101 &
1#
b101 '
b100 $
0(
#1996
0%
#2001
b000 !
1%
b001 "
b0001 &
0#
b001 '
b000 $
1(
#2006
0%
#2011
b001 !
1%
b010 "
b0010 &
b010 '
b001 $
