test_run_dir/lab66/My_Queue.vcd
$date
2021-10-29T07:44+0000
$end
$version
0.2
$end
$comment

$end
$timescale 1ns  $end
$scope module My_Queue $end
 $var wire 1 * io_out_ready $end
 $var wire 1 ; queue_2 $end
 $var wire 8 N io_out_bits $end
 $var wire 1 P io_in1_valid $end
 $var wire 1 V clock $end
 $var wire 8 a io_in1_bits $end
 $var wire 1 c queue_1 $end
 $var wire 1 d io_out_valid $end
 $var wire 1 o reset $end
 $var wire 1 z io_in1_ready $end
  $scope module queue_1 $end
   $var wire 3 " _value_T_3 $end
   $var wire 3 # _GEN_7 $end
   $var wire 1 ( ptr_match $end
   $var wire 1 , io_enq_ready $end
   $var wire 1 / do_deq $end
   $var wire 3 7 _GEN_6 $end
   $var wire 1 8 io_deq_valid $end
   $var wire 4 9 _value_T_2 $end
   $var wire 3 : _GEN_0 $end
   $var wire 1 = _GEN_9 $end
   $var wire 1 ? empty $end
   $var wire 4 D _value_T $end
   $var wire 3 F value_1 $end
   $var wire 1 I _empty_T $end
   $var wire 8 L ram $end
   $var wire 1 M clock $end
   $var wire 1 O maybe_full $end
   $var wire 3 T _value_T_1 $end
   $var wire 1 U do_enq $end
   $var wire 3 X value $end
   $var wire 3 e _GEN_8 $end
   $var wire 8 f io_deq_bits $end
   $var wire 1 h io_deq_ready $end
   $var wire 1 i _T $end
   $var wire 1 k full $end
   $var wire 1 n io_enq_valid $end
   $var wire 8 p io_enq_bits $end
   $var wire 1 r wrap $end
   $var wire 1 w wrap_1 $end
   $var wire 1 } reset $end
    $scope module ram $end
     $var wire 8 l MPORT $end
      $scope module MPORT $end
       $var wire 3 ) pipeline_addr_0 $end
       $var wire 3 . addr $end
       $var wire 1 C en $end
       $var wire 8 J data $end
       $var wire 8 \ pipeline_data_0 $end
       $var wire 1 ` pipeline_valid_0 $end
       $var wire 1 j clk $end
       $var wire 1 q valid $end
       $var wire 1 t mask $end
      $upscope $end
      $scope module io_deq_bits_MPORT $end
       $var wire 1 4 clk $end
       $var wire 8 < data $end
       $var wire 1 b en $end
       $var wire 3 { addr $end
      $upscope $end
    $upscope $end
  $upscope $end
  $scope module queue_2 $end
   $var wire 1 ! _GEN_6 $end
   $var wire 1 % io_deq_valid $end
   $var wire 1 & value_1 $end
   $var wire 1 1 value $end
   $var wire 1 2 ptr_match $end
   $var wire 1 3 maybe_full $end
   $var wire 1 5 _T $end
   $var wire 1 6 do_enq $end
   $var wire 1 > _empty_T $end
   $var wire 1 @ clock $end
   $var wire 2 B _value_T $end
   $var wire 1 E _value_T_1 $end
   $var wire 1 G _GEN_5 $end
   $var wire 1 K io_enq_valid $end
   $var wire 1 Q io_deq_ready $end
   $var wire 8 S ram $end
   $var wire 1 Y reset $end
   $var wire 1 [ _value_T_3 $end
   $var wire 1 ] _GEN_7 $end
   $var wire 8 ^ io_deq_bits $end
   $var wire 8 _ io_enq_bits $end
   $var wire 1 s empty $end
   $var wire 1 u do_deq $end
   $var wire 1 y full $end
   $var wire 1 | io_enq_ready $end
   $var wire 2 ~ _value_T_2 $end
    $scope module ram $end
     $var wire 8 0 MPORT $end
      $scope module MPORT $end
       $var wire 1 $ pipeline_addr_0 $end
       $var wire 8 + data $end
       $var wire 1 - en $end
       $var wire 8 H pipeline_data_0 $end
       $var wire 1 R clk $end
       $var wire 1 Z mask $end
       $var wire 1 m addr $end
       $var wire 1 v pipeline_valid_0 $end
       $var wire 1 x valid $end
      $upscope $end
      $scope module io_deq_bits_MPORT $end
       $var wire 1 ' clk $end
       $var wire 1 A addr $end
       $var wire 8 W data $end
       $var wire 1 g en $end
      $upscope $end
    $upscope $end
  $upscope $end
$upscope $end
$enddefinitions $end
$dumpvars
0C
0;
0&
b00000000 0
0o
b000 {
0R
0=
b00000000 \
1g
0q
0i
b00000000 ^
b000 .
0k
0V
0m
0P
03
b000 T
b000 "
0|
05
0-
1t
b000 X
0/
b00000000 N
0x
0c
0[
01
0z
0r
0]
0@
b000 7
b00000000 J
b00000000 a
b00000000 L
b000 F
0%
0v
0n
0Y
b000 e
0'
0>
06
0!
b00000000 H
b00000000 +
0j
0U
b0000 9
0M
08
b00000000 _
1b
0d
0O
02
b000 )
b00000000 <
0Q
0I
04
b00000000 p
b00000000 S
0}
0h
b000 #
b00 ~
0`
0K
b000 :
0w
0E
b00000000 l
b00000000 W
0(
0y
1Z
0G
0?
b00000000 f
0*
0s
0A
0,
b00 B
0$
0u
b0000 D
$end
#0
b01 B
1Y
1}
1h
b0001 D
1o
b01 ~
1E
1(
1[
1>
b001 T
1?
b001 "
1s
b001 #
12
b0001 9
b001 :
1I
1|
1,
#1
14
1@
1R
1V
1'
1j
1M
#6
04
1C
0R
b00011000 J
0Y
0}
0o
0'
1i
1=
b00011000 a
b001 7
0j
b00011000 p
0M
1q
1U
0@
0V
1P
1n
#11
b00011000 f
b00011000 <
14
1R
15
1K
16
0i
b010 7
1j
1/
1M
1G
b001 e
1]
b00011000 +
0I
b00011000 _
1-
1`
b001 X
b001 .
b0010 D
1'
1x
0(
b00011000 \
b010 T
0?
1@
18
1V
1O
b010 :
#16
04
0@
0R
0V
0'
0j
0M
#21
13
14
1R
b011 7
1j
1M
b00011000 N
b001 F
11
1d
0G
02
b010 e
b00011000 H
b001 {
b00011000 ^
b10 B
1%
b010 X
1v
b010 .
b0011 D
1'
0E
0>
b001 )
b011 T
b010 "
1@
0s
b010 #
1V
b0010 9
b00011000 W
b011 :
1m
#26
04
0@
0R
0V
0'
0j
0M
#31
14
1R
05
0h
06
1i
b100 7
1j
0/
1M
b010 F
01
1y
12
b010 {
0|
b01 B
0-
b011 X
b011 .
b0100 D
1'
1E
0x
b010 )
b100 T
b011 "
1@
b011 #
1V
b0011 9
1$
b100 :
0m
#36
04
0@
0R
0V
0'
0j
0M
#41
b100 X
14
1R
0v
b100 .
b0101 D
1'
b000 7
1j
1M
b011 )
b101 T
1r
1@
1V
0$
b000 :
#46
04
0@
0R
0V
0'
0j
0M
#51
b000 X
14
1R
b000 .
b0001 D
1'
b001 7
1j
1M
b100 )
b001 T
0r
1@
1V
b001 :
#56
04
0@
0R
0V
0'
0j
0M
#61
b001 X
14
1R
b001 .
b0010 D
1'
b010 7
1j
1M
b000 )
b010 T
1@
1V
b010 :
#66
04
0@
0R
0V
0'
0j
0M
#71
b010 X
0C
1R
b010 .
14
b0011 D
1'
0i
1(
1j
1M
0q
b001 )
b011 T
0U
1@
1k
1V
b011 :
0,
#76
04
0@
0R
0V
0'
0j
0M
#81
0`
14
1@
1R
1V
1'
1j
1M
b010 )
